<?xml version="1.0" encoding="UTF-8" standalone="no"?>
<svg
   xmlns:dc="http://purl.org/dc/elements/1.1/"
   xmlns:cc="http://creativecommons.org/ns#"
   xmlns:rdf="http://www.w3.org/1999/02/22-rdf-syntax-ns#"
   xmlns:svg="http://www.w3.org/2000/svg"
   xmlns="http://www.w3.org/2000/svg"
   version="1.1"
   id="svg2"
   viewBox="0 0 390.41555 94.5"
   height="1.05in"
   width="4.3379502in">
  <defs
     id="defs4" />
  <metadata
     id="metadata7">
    <rdf:RDF>
      <cc:Work
         rdf:about="">
        <dc:format>image/svg+xml</dc:format>
        <dc:type
           rdf:resource="http://purl.org/dc/dcmitype/StillImage" />
        <dc:title></dc:title>
      </cc:Work>
    </rdf:RDF>
  </metadata>
  <g
     transform="translate(-48.155693,-9.2907598)"
     id="layer1">
    <text
       id="text4684"
       y="87.790756"
       x="45.714287"
       style="font-style:normal;font-variant:normal;font-weight:normal;font-stretch:normal;font-size:62.5px;line-height:125%;font-family:Comfortaa;-inkscape-font-specification:Comfortaa;letter-spacing:0px;word-spacing:0px;fill:#000000;fill-opacity:1;stroke:none;stroke-width:1px;stroke-linecap:butt;stroke-linejoin:miter;stroke-opacity:1"
       xml:space="preserve"><tspan
         y="87.790756"
         x="45.714287"
         id="tspan4686"><tspan
   id="tspan4702"
   style="fill:#ff2600;fill-opacity:1">Lookin</tspan>Labs</tspan></text>
    <ellipse
       ry="30"
       rx="34.285713"
       cy="45.219353"
       cx="404.28571"
       id="path4696"
       style="opacity:1;fill:#ff0020;fill-opacity:0.839779;stroke:none;stroke-opacity:1" />
    <text
       id="text4698"
       y="53.790794"
       x="374.28571"
       style="font-style:normal;font-variant:normal;font-weight:normal;font-stretch:normal;font-size:27.5px;line-height:125%;font-family:Comfortaa;-inkscape-font-specification:Comfortaa;letter-spacing:0px;word-spacing:0px;fill:#ffff3e;fill-opacity:1;stroke:none;stroke-width:1px;stroke-linecap:butt;stroke-linejoin:miter;stroke-opacity:1"
       xml:space="preserve"><tspan
         y="53.790794"
         x="374.28571"
         id="tspan4700">beta</tspan></text>
  </g>
</svg>
